1.000000000000000048e-04 -5.770070880945397107e+01
1.001002000000000010e+02 -4.455375209920076429e+01
2.002002999999999986e+02 8.770375548312208025e+01
3.003003999999999678e+02 3.236591250340323427e+02
4.004004999999999654e+02 4.444871289765688971e+02
5.005005999999999631e+02 5.518674748072861576e+02
6.006006999999999607e+02 7.276107238438696641e+02
7.007007999999999583e+02 8.018317123164496252e+02
8.008008999999999560e+02 7.851089183606468396e+02
9.009009999999999536e+02 8.237659198485395109e+02
1.001001099999999951e+03 9.542682390192603634e+02
1.101101199999999835e+03 1.113062978986165263e+03
1.201201299999999947e+03 1.156994009266066996e+03
1.301301400000000058e+03 1.233306092585467013e+03
1.401401499999999942e+03 1.267287538241801940e+03
1.501501599999999826e+03 1.518283980837798936e+03
1.601601699999999937e+03 1.283741181584505057e+03
1.701701800000000048e+03 1.470577022235173445e+03
1.801801899999999932e+03 1.724180816860781079e+03
1.901901999999999816e+03 1.735451777082058015e+03
2.002002099999999928e+03 1.578310242472345408e+03
2.102102200000000266e+03 1.842231447664041525e+03
2.202202299999999923e+03 1.979471690605274262e+03
2.302302400000000034e+03 1.816404449808059326e+03
2.402402500000000146e+03 1.834303514649086765e+03
2.502502600000000257e+03 2.075310328099808430e+03
2.602602700000000368e+03 2.086681461789781679e+03
2.702702800000000025e+03 2.109022921471179870e+03
2.802802900000000136e+03 2.158381076758831568e+03
2.902903000000000247e+03 2.242333715411476533e+03
3.003003099999999904e+03 2.249073724333473820e+03
3.103103200000000015e+03 2.271232771873487764e+03
3.203203300000000127e+03 2.072775458880330916e+03
3.303303400000000238e+03 2.377370331761262605e+03
3.403403500000000349e+03 2.360393750024082692e+03
3.503503600000000006e+03 2.242100075157144147e+03
3.603603700000000117e+03 2.442295718778674200e+03
3.703703800000000228e+03 2.409975263129665109e+03
3.803803899999999885e+03 2.315974934802386542e+03
3.903903999999999996e+03 2.435272493111815038e+03
4.004004100000000108e+03 2.436882899257835561e+03
4.104104199999999764e+03 2.508243572276212944e+03
4.204204300000000330e+03 2.472847195997051131e+03
4.304304399999999987e+03 2.453136014266269740e+03
4.404404499999999643e+03 2.131560593085830988e+03
4.504504600000000210e+03 2.309397057791394673e+03
4.604604699999999866e+03 2.360307075382830590e+03
4.704704800000000432e+03 2.372883257261103608e+03
4.804804900000000089e+03 2.387202568680751028e+03
4.904904999999999745e+03 2.231099014990918477e+03
5.005005100000000311e+03 2.195735830975158024e+03
5.105105199999999968e+03 2.153775799355989420e+03
5.205205300000000534e+03 2.201107184760981909e+03
5.305305400000000191e+03 2.313679523078260445e+03
5.405405499999999847e+03 2.195170512679082094e+03
5.505505600000000413e+03 2.199863451041533608e+03
5.605605700000000070e+03 1.996386874710011625e+03
5.705705799999999726e+03 2.131134973383816487e+03
5.805805900000000292e+03 2.048938157885784221e+03
5.905905999999999949e+03 1.907911706780796521e+03
6.006006099999999606e+03 1.795436601256803442e+03
6.106106200000000172e+03 1.980316728197008615e+03
6.206206299999999828e+03 1.798141317549486757e+03
6.306306400000000394e+03 1.625012068429200781e+03
6.406406500000000051e+03 1.708718228817668432e+03
6.506506599999999708e+03 1.598641192016280229e+03
6.606606700000000274e+03 1.583126612713692793e+03
6.706706799999999930e+03 1.578782596287026536e+03
6.806806900000000496e+03 1.343692119080610837e+03
6.906907000000000153e+03 1.438489615709606596e+03
7.007007099999999809e+03 1.323722202235331679e+03
7.107107200000000375e+03 1.209073820309096618e+03
7.207207300000000032e+03 1.259350844452490264e+03
7.307307399999999689e+03 1.309208684585895526e+03
7.407407500000000255e+03 1.029779999232532646e+03
7.507507599999999911e+03 1.386994096441238753e+03
7.607607699999999568e+03 1.147369838720371490e+03
7.707707800000000134e+03 1.145521116381021557e+03
7.807807899999999790e+03 1.069304024406863391e+03
7.907908000000000357e+03 1.084822313441056849e+03
8.008008100000000013e+03 1.120114338410017808e+03
8.108108199999999670e+03 1.135819434979999187e+03
8.208208299999998417e+03 1.003201275981606159e+03
8.308308399999999892e+03 8.760735745979555986e+02
8.408408499999999549e+03 9.348804016173622813e+02
8.508508599999999205e+03 8.443202913052589338e+02
8.608608699999998862e+03 7.350085694800428655e+02
8.708708799999998519e+03 7.996492394927155374e+02
8.808808899999998175e+03 7.118469502296752580e+02
8.908908999999999651e+03 7.280670299400646854e+02
9.009009099999999307e+03 6.378165293399130178e+02
9.109109199999998964e+03 6.447544056170029307e+02
9.209209299999998620e+03 5.664243787486030897e+02
9.309309399999998277e+03 6.178301544067483064e+02
9.409409499999999753e+03 6.220790445672240594e+02
9.509509599999999409e+03 4.593596962754226638e+02
9.609609699999999066e+03 5.861899573753743198e+02
9.709709799999998722e+03 3.394494519145868026e+02
9.809809899999998379e+03 5.560036440521424765e+02
9.909909999999999854e+03 4.758040115740545275e+02
1.001001009999999951e+04 4.398758395145808890e+02
1.011011019999999917e+04 5.456635152020464830e+02
1.021021029999999882e+04 2.908138932365186520e+02
1.031031039999999848e+04 2.451185148588453444e+02
1.041041049999999996e+04 2.416260302810270559e+02
1.051051059999999961e+04 3.201522823938128113e+02
1.061061069999999927e+04 3.732399904861516120e+02
1.071071079999999893e+04 3.678230689635564659e+02
1.081081089999999858e+04 2.454203348413054186e+02
1.091091099999999824e+04 2.598315013868764254e+02
1.101101109999999971e+04 2.439515926183539420e+02
1.111111119999999937e+04 1.203366106389202912e+02
1.121121129999999903e+04 4.631756204925097791e+02
1.131131139999999868e+04 2.515714286432288418e+02
1.141141149999999834e+04 2.043906745016546722e+02
1.151151159999999982e+04 2.110630529087082721e+02
1.161161169999999947e+04 3.121885869621391976e+02
1.171171179999999913e+04 2.355339134368796294e+02
1.181181189999999879e+04 2.320841460943609604e+02
1.191191199999999844e+04 6.010947354601552206e+01
1.201201209999999810e+04 1.952750221784243081e+02
1.211211219999999958e+04 1.251500886850980834e+02
1.221221229999999923e+04 3.031997229586388016e+02
1.231231239999999889e+04 4.979949442119485781e+01
1.241241249999999854e+04 5.998793456780758504e+01
1.251251259999999820e+04 7.953585199290931484e+01
1.261261269999999968e+04 2.054914994817402487e+02
1.271271279999999933e+04 2.534708082219255232e+01
1.281281289999999899e+04 -6.091795503112311394e+01
1.291291299999999865e+04 9.357381832282401035e+01
1.301301309999999830e+04 5.015552589762819480e+00
1.311311319999999978e+04 5.049492034255171546e+01
1.321321329999999944e+04 -8.520221963074929761e+01
1.331331339999999909e+04 1.159689667910294020e+01
1.341341349999999875e+04 2.405146686767909898e+02
1.351351359999999841e+04 1.176875964480216084e+02
1.361361369999999988e+04 -1.445795577179781617e+02
1.371371379999999954e+04 2.420646524254228282e+01
1.381381389999999919e+04 -5.857622665473053303e+01
1.391391399999999885e+04 1.023668178483560212e+02
1.401401409999999851e+04 -1.029130156387664030e+01
1.411411419999999816e+04 1.351954146824070051e+02
1.421421429999999964e+04 -1.403591189876308931e+02
1.431431439999999930e+04 7.975666777905657057e+01
1.441441449999999895e+04 -4.713300857680272316e+01
1.451451459999999861e+04 -3.905422909276381915e+01
1.461461469999999827e+04 7.631052815734653905e+01
1.471471479999999974e+04 1.398577506123637626e+01
1.481481489999999940e+04 7.831474672546715965e+01
1.491491499999999905e+04 5.288669255037306982e+01
1.501501509999999871e+04 5.948997069636899937e+01
1.511511519999999837e+04 -8.813205122743524100e+01
1.521521529999999802e+04 -2.093526407214694274e+01
1.531531539999999950e+04 1.949771883438476721e+02
1.541541549999999916e+04 2.951219447985365107e+01
1.551551559999999881e+04 -1.833872322482570780e+02
1.561561569999999847e+04 1.726194883275738334e+02
1.571571579999999813e+04 8.398669550024926878e+01
1.581581589999999960e+04 -6.921459918958304058e+01
1.591591599999999926e+04 9.759581827946209387e+01
1.601601609999999891e+04 -5.471473453314919055e+01
1.611611619999999857e+04 -7.027013525159944152e+01
1.621621629999999823e+04 1.190786137496014696e+01
1.631631639999999970e+04 -3.657164006012855850e+01
1.641641649999999936e+04 -4.662480726739961057e+00
1.651651659999999902e+04 1.142056103498938597e+02
1.661661670000000231e+04 1.023755548813112597e+02
1.671671680000000197e+04 -1.994125519135834850e+02
1.681681690000000162e+04 -9.729969900607677857e+00
1.691691700000000128e+04 -5.201768063389564389e+01
1.701701710000000094e+04 -1.251411321363730877e+02
1.711711720000000059e+04 -2.745192994014768715e+02
1.721721730000000025e+04 2.152304201660722427e+01
1.731731739999999991e+04 4.175549592304642488e+01
1.741741749999999956e+04 1.561620710100197584e+02
1.751751759999999922e+04 -1.421865105750120506e+02
1.761761769999999888e+04 -4.438887291029995907e+01
1.771771780000000217e+04 -2.160857058464191311e+02
1.781781790000000183e+04 5.196310214859684606e+01
1.791791800000000148e+04 -4.184240948599543231e+01
1.801801810000000114e+04 4.405649562548397569e+01
1.811811820000000080e+04 8.855482506689610034e+01
1.821821830000000045e+04 1.323560224331097004e+02
1.831831840000000011e+04 -8.039298976379107842e+01
1.841841849999999977e+04 1.145584874947701906e+02
1.851851859999999942e+04 7.515539473785510438e+01
1.861861869999999908e+04 6.439922562219612701e+01
1.871871880000000237e+04 1.010568813358478053e+02
1.881881890000000203e+04 -9.281621767049013272e+01
1.891891900000000169e+04 -1.148088984043224627e+02
1.901901910000000134e+04 -1.003572202987459718e+02
1.911911920000000100e+04 5.047222193952958236e+01
1.921921930000000066e+04 -1.880915589822131437e+02
1.931931940000000031e+04 -8.486108347639482474e+01
1.941941949999999997e+04 2.547904621392691382e+01
1.951951959999999963e+04 1.273853033331092632e+01
1.961961969999999928e+04 -3.979966354723264033e+01
1.971971979999999894e+04 -1.126286290118051170e+02
1.981981990000000224e+04 -5.863752439093680380e+01
1.991992000000000189e+04 -7.682314164637334386e+01
2.002002010000000155e+04 4.935593350372766963e+01
2.012012020000000120e+04 6.422638137591918905e+01
2.022022030000000086e+04 4.398235308191522819e+01
2.032032040000000052e+04 -5.062592548827488770e+01
2.042042050000000017e+04 -2.247116834839966373e+02
2.052052059999999983e+04 1.098484686867129589e+01
2.062062069999999949e+04 1.374921471822073045e+02
2.072072079999999914e+04 -2.646664515462281031e+01
2.082082090000000244e+04 2.141978178782256634e+02
2.092092100000000210e+04 1.588366401762273767e+02
2.102102110000000175e+04 -8.534189171360507942e+01
2.112112120000000141e+04 -1.518472215824904765e+02
2.122122130000000107e+04 -8.680029425594493375e+01
2.132132140000000072e+04 1.525987539649538149e+00
2.142142150000000038e+04 -6.075673545411525112e+01
2.152152160000000003e+04 -7.678001555176882675e+01
2.162162169999999969e+04 -3.972870460672756110e+01
2.172172179999999935e+04 -1.710109875322576656e+01
2.182182189999999900e+04 2.169048938830605877e+01
2.192192200000000230e+04 8.068368473372860450e+00
2.202202210000000196e+04 1.131535245116419190e+02
2.212212220000000161e+04 1.719916553830478634e+01
2.222222230000000127e+04 2.195952062225809343e+01
2.232232240000000093e+04 4.985652822961472452e+01
2.242242250000000058e+04 1.301390021158378829e+02
2.252252260000000024e+04 -7.740747305906610620e+01
2.262262269999999990e+04 -3.292653880064235636e+02
2.272272279999999955e+04 1.805710242328227935e+02
2.282282289999999921e+04 5.357370021872960564e+01
2.292292299999999886e+04 4.466152010100693559e+01
2.302302310000000216e+04 -2.510519890526638065e+01
2.312312320000000182e+04 -2.013966271259692178e+02
2.322322330000000147e+04 -1.997757747167431930e+01
2.332332340000000113e+04 -9.582500554497929102e+01
2.342342350000000079e+04 -7.859347007903450333e+01
2.352352360000000044e+04 -5.926045963404575900e+01
2.362362370000000010e+04 -8.927536096274999977e+01
2.372372379999999976e+04 -2.331413759846021208e+02
2.382382389999999941e+04 4.995712386428851914e+01
2.392392399999999907e+04 -1.948101103778576260e+01
2.402402409999999873e+04 -1.529557620275466263e+02
2.412412420000000202e+04 -9.168999652382501608e+01
2.422422430000000168e+04 -2.833018278683767477e+01
2.432432440000000133e+04 7.772545750601780412e+01
2.442442450000000099e+04 -1.413682776786277451e+01
2.452452460000000065e+04 -4.774506971012774770e+00
2.462462470000000030e+04 8.725214370372246719e+01
2.472472479999999996e+04 2.473161299623220799e+01
2.482482489999999962e+04 -5.278583813222652310e+01
2.492492499999999927e+04 -2.429416575467524240e+02
2.502502509999999893e+04 -9.194384053466947648e+01
2.512512520000000222e+04 -3.070615889623311645e+01
2.522522530000000188e+04 1.855499516937423721e+02
2.532532540000000154e+04 8.606369486270249070e+01
2.542542550000000119e+04 -3.940223738854307811e+01
2.552552560000000085e+04 -1.555078652353845747e+01
2.562562570000000051e+04 -1.307247465909060793e+02
2.572572580000000016e+04 1.508262633668458932e+02
2.582582589999999982e+04 -8.414134285481524955e+01
2.592592599999999948e+04 7.735072700298259463e+01
2.602602609999999913e+04 1.271881145398300532e+02
2.612612619999999879e+04 -1.246842972367962687e+02
2.622622630000000208e+04 -8.231222961114059444e+01
2.632632640000000174e+04 -7.616627879464316209e+01
2.642642650000000140e+04 -6.832574673308607238e+00
2.652652660000000105e+04 7.815946698573060303e+01
2.662662670000000071e+04 -8.474745017653937396e+01
2.672672680000000037e+04 -4.637231520570330190e+01
2.682682690000000002e+04 1.331468280788711525e+02
2.692692699999999968e+04 -6.446560120140426875e+01
2.702702709999999934e+04 -2.005794344339037139e+02
2.712712719999999899e+04 1.574798126692720146e+01
2.722722730000000229e+04 -1.565014788664983882e+02
2.732732740000000194e+04 -1.086953570928537260e+01
2.742742750000000160e+04 1.305242110811298062e+02
2.752752760000000126e+04 2.347467352983352296e-01
2.762762770000000091e+04 -1.957799453049311751e+02
2.772772780000000057e+04 8.226687588911302385e+01
2.782782790000000023e+04 1.633984503471623100e+02
2.792792799999999988e+04 -3.342765136845459395e+00
2.802802809999999954e+04 3.862516403776227403e+00
2.812812819999999920e+04 -2.590104966324276958e+01
2.822822829999999885e+04 -9.560311069039403264e+01
2.832832840000000215e+04 2.282613265553297026e+02
2.842842850000000180e+04 9.001610860779433665e+01
2.852852860000000146e+04 6.973577021405948528e+01
2.862862870000000112e+04 7.825349152793806695e+01
2.872872880000000077e+04 1.430796016649518094e+02
2.882882890000000043e+04 -9.023301056201293591e+01
2.892892900000000009e+04 -7.921815024414331674e+01
2.902902909999999974e+04 1.750244861002290406e+02
2.912912919999999940e+04 2.048105526790543607e+01
2.922922929999999906e+04 1.681336745753555704e+02
2.932932939999999871e+04 -3.276824924340071732e+01
2.942942950000000201e+04 3.944401676222799580e+00
2.952952960000000166e+04 1.096290790284157026e+02
2.962962970000000132e+04 -9.387486220450175267e+01
2.972972980000000098e+04 -9.024861487082721112e+01
2.982982990000000063e+04 -1.100393117809519623e+02
2.992993000000000029e+04 2.324917790063534689e-02
3.003003009999999995e+04 -4.897288915632493911e+01
3.013013019999999960e+04 -3.121394979165854622e+01
3.023023029999999926e+04 4.317401047525164159e+01
3.033033039999999892e+04 -9.649059231621130550e+01
3.043043049999999857e+04 -6.722477645239885646e+01
3.053053060000000187e+04 5.375025265926292484e+00
3.063063070000000153e+04 1.402876797952949914e+02
3.073073080000000118e+04 -8.805602133677943755e+01
3.083083090000000084e+04 -5.943121540886659915e+01
3.093093100000000049e+04 -6.646208565810347579e+01
3.103103110000000015e+04 2.399260164111096572e+02
3.113113119999999981e+04 1.370568040454540437e+02
3.123123129999999946e+04 1.590317316201015174e+01
3.133133139999999912e+04 8.758613663133284888e+01
3.143143149999999878e+04 6.081939856271773692e+00
3.153153160000000207e+04 -9.153457305145012413e+01
3.163163170000000173e+04 -7.943881258967439862e+01
3.173173180000000139e+04 2.505529161214687495e+00
3.183183190000000104e+04 6.133406248441807662e+01
3.193193200000000070e+04 7.268992885900502188e+01
3.203203210000000036e+04 4.537512650253827928e+01
3.213213220000000001e+04 1.769517869578427849e+02
3.223223229999999967e+04 -1.178245805700174174e+02
3.233233239999999932e+04 -7.567456576529299639e+01
3.243243249999999898e+04 1.303203678839932138e+02
3.253253259999999864e+04 6.476484753096674751e+01
3.263263270000000193e+04 4.374553258247043175e+01
3.273273280000000159e+04 4.471891959294227803e+01
3.283283289999999397e+04 1.195838080472037568e+01
3.293293299999999726e+04 6.804116850127657301e+01
3.303303309999999328e+04 -1.866970466219131026e+02
3.313313319999999658e+04 5.863336072333265747e+01
3.323323329999999987e+04 1.338185184311399496e+02
3.333333339999999589e+04 -1.327001678381440115e+02
3.343343349999999919e+04 -2.286673185209293280e+01
3.353353359999999520e+04 -7.410959541544599460e+01
3.363363369999999850e+04 7.756265010690627548e+01
3.373373379999999452e+04 -1.446853217966302338e+02
3.383383389999999781e+04 -5.201975369516324577e+01
3.393393399999999383e+04 -6.576749804779082353e+01
3.403403409999999712e+04 -1.545047567314540800e+02
3.413413419999999314e+04 2.107492638740048676e+02
3.423423429999999644e+04 7.475819935834766738e+01
3.433433439999999973e+04 -2.799589326452078808e+01
3.443443449999999575e+04 1.057526151500062070e+02
3.453453459999999905e+04 -1.220071820854447679e+02
3.463463469999999506e+04 -1.374191502753949656e+01
3.473473479999999836e+04 5.482722281104508966e+01
3.483483489999999438e+04 2.592106530343953352e+01
3.493493499999999767e+04 -1.413672191739179311e+02
3.503503509999999369e+04 1.021578098738080769e+02
3.513513519999999698e+04 -1.783866341122735548e+02
3.523523529999999300e+04 -7.091857621548759028e+01
3.533533539999999630e+04 -4.373337208625591188e+01
3.543543549999999959e+04 -2.762901724289939764e+01
3.553553559999999561e+04 1.471297514384461920e+02
3.563563569999999891e+04 -4.304800085614623839e+01
3.573573579999999492e+04 7.455324664926293643e+00
3.583583589999999822e+04 -7.336271727746836291e+01
3.593593599999999424e+04 1.617950604511843835e+02
3.603603609999999753e+04 1.767200672304428508e+02
3.613613619999999355e+04 5.711330163324249298e+01
3.623623629999999685e+04 -6.050694456179254388e+01
3.633633640000000014e+04 1.479691660576105221e+02
3.643643649999999616e+04 -1.551656862436426998e+01
3.653653659999999945e+04 1.416522844256934732e+01
3.663663669999999547e+04 1.211983860491887697e+02
3.673673679999999877e+04 -2.698769674765750803e+00
3.683683689999999478e+04 2.350835627837287518e+02
3.693693699999999808e+04 -1.030874642820710285e+00
3.703703709999999410e+04 1.118430788294940470e+01
3.713713719999999739e+04 1.370484015657994519e+02
3.723723729999999341e+04 -1.269232335441059973e+02
3.733733739999999671e+04 1.394039068508003609e+01
3.743743750000000000e+04 1.472973765722477140e+02
3.753753759999999602e+04 1.045182454780592138e+02
3.763763769999999931e+04 8.746937406118489378e+01
3.773773779999999533e+04 -7.360341856285023354e+00
3.783783789999999863e+04 1.610410160400969346e+02
3.793793799999999464e+04 -7.870890009407092691e+01
3.803803809999999794e+04 1.818280362552507654e+02
3.813813819999999396e+04 -9.882869523818200719e+01
3.823823829999999725e+04 1.329548808199260748e+02
3.833833839999999327e+04 -6.062172069999382273e+01
3.843843849999999657e+04 1.153178303725104428e+02
3.853853859999999986e+04 -2.031884561985198161e+02
3.863863869999999588e+04 1.356810532673931036e+01
3.873873879999999917e+04 4.413078146035785210e+01
3.883883889999999519e+04 -1.028100599014667154e+02
3.893893899999999849e+04 4.957981235231333272e+01
3.903903909999999451e+04 -3.301287436863053415e+01
3.913913919999999780e+04 -4.186623807745841930e+01
3.923923929999999382e+04 -1.523757211546152632e+02
3.933933939999999711e+04 3.594554361424984279e+01
3.943943949999999313e+04 7.379203780532536427e+01
3.953953959999999643e+04 -1.541370961071170065e+01
3.963963969999999972e+04 1.311272263014213877e+02
3.973973979999999574e+04 -1.173150814722368196e+01
3.983983989999999903e+04 -2.633193682298405633e+02
3.993993999999999505e+04 -1.155502802984151032e+02
4.004004009999999835e+04 -3.371815154135834547e+01
4.014014019999999437e+04 4.599262819033475225e+00
4.024024029999999766e+04 -1.588260161756541038e+02
4.034034039999999368e+04 -8.423815696669140607e+01
4.044044049999999697e+04 -1.103870714145194665e+00
4.054054059999999299e+04 -2.121829294912472506e+02
4.064064069999999629e+04 -2.206852370300600441e+01
4.074074079999999958e+04 1.347268772297683768e+02
4.084084089999999560e+04 1.468653425122176657e+02
4.094094099999999889e+04 -1.319521478460017860e+01
4.104104109999999491e+04 -3.335209891038287111e+01
4.114114119999999821e+04 5.417725452622208593e+01
4.124124129999999423e+04 9.706516964706704442e+00
4.134134139999999752e+04 -1.465319310484956361e+02
4.144144149999999354e+04 3.607568565314261377e+01
4.154154159999999683e+04 -1.790349497795304146e+01
4.164164170000000013e+04 8.444130904482992150e+01
4.174174179999999615e+04 3.579179213448242791e+01
4.184184189999999944e+04 -1.744259724398055198e+02
4.194194199999999546e+04 -6.218107296189850075e+01
4.204204209999999875e+04 2.815335011147306332e+01
4.214214219999999477e+04 9.445185500377900212e+01
4.224224229999999807e+04 1.468507499303680959e+02
4.234234239999999409e+04 2.768240823914155513e+01
4.244244249999999738e+04 -5.824231050200284443e+01
4.254254259999999340e+04 -1.639054437162242905e+01
4.264264269999999669e+04 3.258277704918391748e+01
4.274274279999999999e+04 7.385369402955012674e+01
4.284284289999999601e+04 2.115961864882110799e+00
4.294294299999999930e+04 1.537501829484325810e+02
4.304304309999999532e+04 8.155474330540224415e+00
4.314314319999999861e+04 -7.287336681573489727e+01
4.324324329999999463e+04 7.196459395221797450e+00
4.334334339999999793e+04 1.328753547708547700e+01
4.344344349999999395e+04 4.472747000748811530e+01
4.354354359999999724e+04 -8.737855358729444788e+01
4.364364369999999326e+04 -1.723298688318179472e+02
4.374374379999999655e+04 -7.801587448450420936e+01
4.384384389999999985e+04 6.546923186042776877e+01
4.394394399999999587e+04 -2.954787592297504872e+01
4.404404409999999916e+04 -6.516960927716930030e+01
4.414414419999999518e+04 -6.189066846742436212e+01
4.424424429999999847e+04 -1.458119998360006377e+02
4.434434439999999449e+04 1.511514474703862732e+02
4.444444449999999779e+04 3.832062581830481918e+01
4.454454459999999381e+04 -4.562250795747278431e+01
4.464464469999999710e+04 9.718164971895990334e+01
4.474474479999999312e+04 1.184204377516142443e+02
4.484484489999999641e+04 -8.403212693845377146e+01
4.494494499999999971e+04 -1.745359672958964481e+01
4.504504509999999573e+04 -3.293398696593384045e+01
4.514514519999999902e+04 1.729969428249069381e+02
4.524524529999999504e+04 4.075976609058083966e+01
4.534534539999999834e+04 -4.457258272537875854e+01
4.544544549999999435e+04 4.670908495262698068e+01
4.554554559999999765e+04 -3.578245518054167462e+01
4.564564569999999367e+04 -3.386640216823314375e+01
4.574574579999999696e+04 -1.228114671047102462e+02
4.584584589999999298e+04 -1.490642100813755064e+02
4.594594599999999627e+04 8.961891945265846005e+01
4.604604609999999957e+04 1.376027779538350728e+02
4.614614619999999559e+04 -3.915998602645073134e+01
4.624624629999999888e+04 -1.685271947741824476e+02
4.634634639999999490e+04 1.845207909146735972e+02
4.644644649999999820e+04 -2.216677130102854392e+02
4.654654659999999421e+04 -3.113032738742734651e+01
4.664664669999999751e+04 9.346678401555571725e+01
4.674674679999999353e+04 -1.089453846168558186e+02
4.684684689999999682e+04 -9.652386768565938269e+01
4.694694699999999284e+04 7.345819146939209077e+01
4.704704709999999614e+04 -1.344278356056955204e+02
4.714714719999999943e+04 -1.007704723160888172e+01
4.724724729999999545e+04 -5.069729752119442878e+01
4.734734739999999874e+04 3.503356461644903419e+01
4.744744749999999476e+04 -1.548711784414744272e+02
4.754754759999999806e+04 7.661877095709188268e+01
4.764764769999999407e+04 -9.085191049248003026e+01
4.774774779999999737e+04 -4.504758637818186884e+01
4.784784789999999339e+04 -4.226409406268460600e+01
4.794794799999999668e+04 -1.809107990994793980e+01
4.804804809999999270e+04 -1.201446967527449914e+02
4.814814819999999600e+04 -7.450790873925474500e+01
4.824824829999999929e+04 1.506965358572322486e+02
4.834834839999999531e+04 -1.496854400328780343e+02
4.844844849999999860e+04 -9.889228495666773711e+01
4.854854859999999462e+04 4.238774826127392714e+01
4.864864869999999792e+04 -3.663724502058908428e+01
4.874874879999999393e+04 5.697026609351890869e+01
4.884884889999999723e+04 -8.597888335041943719e+01
4.894894899999999325e+04 -1.870144409056552774e+02
4.904904909999999654e+04 1.843003325462049702e+01
4.914914919999999984e+04 1.559279875297764022e+02
4.924924929999999586e+04 6.605684235372119417e+01
4.934934939999999915e+04 -9.885945724195138951e+00
4.944944949999999517e+04 -2.203948052952068508e+02
4.954954959999999846e+04 -5.193628266138411220e+00
4.964964969999999448e+04 2.834526205194237747e+01
4.974974979999999778e+04 -7.974677732485467629e+01
4.984984989999999380e+04 1.429064785329019287e+02
4.994994999999999709e+04 -7.464462001280610082e+01
5.005005009999999311e+04 1.137678811842759501e+02
5.015015019999999640e+04 -6.184898379332179452e+00
5.025025029999999970e+04 -3.456802151799219303e+01
5.035035039999999572e+04 1.542550749114975872e+02
5.045045049999999901e+04 -1.298358963614404615e+02
5.055055059999999503e+04 4.844259385459124445e+01
5.065065069999999832e+04 1.816359787792449083e+02
5.075075079999999434e+04 -1.472218332788046666e+02
5.085085089999999764e+04 -2.731872020225545938e+01
5.095095099999999366e+04 9.004340862848077620e+01
5.105105109999999695e+04 -1.307481539018085641e+02
5.115115119999999297e+04 4.137663282909290530e+01
5.125125129999999626e+04 5.521278886787377616e+01
5.135135139999999956e+04 -1.234536811626524582e+02
5.145145149999999558e+04 -9.439661607429212609e+01
5.155155159999999887e+04 2.526081166292318869e+01
5.165165169999999489e+04 -9.057692134988766952e+01
5.175175179999999818e+04 -1.030903099979559556e+01
5.185185189999999420e+04 -7.343728165744457215e+01
5.195195199999999750e+04 -7.223789143283771352e+01
5.205205209999999352e+04 -2.704098450776258744e+01
5.215215219999999681e+04 -1.964010588509988224e+02
5.225225229999999283e+04 1.626651552989587231e+02
5.235235239999999612e+04 -1.446674415849191462e+02
5.245245249999999942e+04 4.366579035193299774e+01
5.255255259999999544e+04 6.686700062313337689e+00
5.265265269999999873e+04 -1.080492472490232991e+01
5.275275279999999475e+04 1.562968125239436858e+02
5.285285289999999804e+04 -1.161915747601287130e+01
5.295295299999999406e+04 5.417730442677208913e+01
5.305305309999999736e+04 -9.178704562734813521e+01
5.315315319999999338e+04 -3.394583472283047576e-01
5.325325329999999667e+04 1.271812669511514002e+02
5.335335339999999269e+04 1.396125780505651903e+02
5.345345349999999598e+04 -7.529261450613726936e+01
5.355355359999999928e+04 -9.714805437496464080e+00
5.365365369999999530e+04 -3.489938250550574139e+01
5.375375379999999859e+04 1.347738994717592504e+02
5.385385389999999461e+04 -6.556092657586476413e+00
5.395395399999999790e+04 5.889416109582209202e+01
5.405405409999999392e+04 -9.464968331624736209e+01
5.415415419999999722e+04 -1.145570811967405511e+01
5.425425429999999324e+04 2.101822850436546730e+01
5.435435439999999653e+04 -1.063895053677008740e+01
5.445445449999999983e+04 1.577672726014113493e+02
5.455455459999999584e+04 -3.060946281768949717e+01
5.465465469999999914e+04 -3.938254990427205371e+01
5.475475479999999516e+04 -1.693408784593938421e+01
5.485485489999999845e+04 -8.447172403873966573e+01
5.495495499999999447e+04 9.434440043313441038e+01
5.505505509999999776e+04 1.436599946640591838e+02
5.515515519999999378e+04 -1.652687654118964247e+02
5.525525529999999708e+04 -5.726612971021624787e+01
5.535535539999999310e+04 -2.619435119703606318e+01
5.545545549999999639e+04 -9.094045077386471121e+01
5.555555559999999969e+04 -1.715690501619458885e+01
5.565565569999999570e+04 1.614534283899041043e+02
5.575575579999999900e+04 5.353530143935948615e+01
5.585585589999999502e+04 -1.003897870871889353e+02
5.595595599999999831e+04 -7.166246421275944556e+01
5.605605609999999433e+04 9.584809719634375824e+01
5.615615619999999763e+04 -2.126671072420998598e+02
5.625625629999999364e+04 1.206576614550472755e+02
5.635635639999999694e+04 -2.202596697448754881e+01
5.645645649999999296e+04 -1.390507480470366488e+02
5.655655659999999625e+04 -3.585901817514377399e+01
5.665665669999999955e+04 9.371304202168104780e+01
5.675675679999999556e+04 1.938899201208732137e+01
5.685685689999999886e+04 -4.259284004557645886e+01
5.695695699999999488e+04 1.699000889207147225e+01
5.705705709999999817e+04 9.098640801319919547e+01
5.715715719999999419e+04 1.765698469340068755e+02
5.725725729999999749e+04 7.049691497316131006e+01
5.735735739999999350e+04 6.004288548840249007e+01
5.745745749999999680e+04 1.502189611376350520e+01
5.755755759999999282e+04 -1.142282156497698224e+02
5.765765769999999611e+04 -2.749975337642401740e+01
5.775775779999999941e+04 7.490316670834327795e+01
5.785785789999999542e+04 -5.981842363820770458e+01
5.795795799999999872e+04 -5.121445660337511185e+01
5.805805809999999474e+04 -5.673573661949541247e+01
5.815815819999999803e+04 1.432332216192348540e+02
5.825825829999999405e+04 2.440750274472444659e+01
5.835835839999999735e+04 -3.827090796191790645e+01
5.845845849999999336e+04 3.008521451654245382e+01
5.855855859999999666e+04 -1.494736212168902227e+02
5.865865869999999268e+04 2.829807331542351534e+01
5.875875879999999597e+04 9.594050170948068512e+01
5.885885889999999927e+04 -2.434408814376108232e+00
5.895895899999999529e+04 -2.576831145638627731e+02
5.905905909999999858e+04 -5.228851279574647037e+01
5.915915919999999460e+04 2.187594240910912546e+01
5.925925929999999789e+04 -1.975459811807950814e+02
5.935935939999999391e+04 -3.572664346665944635e+01
5.945945949999999721e+04 -8.526951615006842644e+01
5.955955959999999322e+04 -3.885549440669741728e+01
5.965965969999999652e+04 -5.212200875365537200e+01
5.975975979999999254e+04 -1.072202868642374796e+02
5.985985989999999583e+04 -1.294924876417245514e+02
5.995995999999999913e+04 1.505217041061406462e+02
6.006006009999999515e+04 6.647502797329183011e+01
6.016016019999999844e+04 1.634969951328980926e+02
6.026026029999999446e+04 -5.048464794420777224e+01
6.036036039999999775e+04 -4.595021655271107619e+00
6.046046049999999377e+04 5.949507162553716455e+01
6.056056059999999707e+04 -5.795031594395219088e+01
6.066066069999999308e+04 -3.722340341563285193e+01
6.076076079999999638e+04 4.050122147471050482e+01
6.086086089999999240e+04 -1.724671768682800916e+02
6.096096099999999569e+04 6.374402688695190022e+01
6.106106109999999899e+04 -1.827075888224140598e+01
6.116116119999999501e+04 9.102682871304071455e+01
6.126126129999999830e+04 1.800793808175763218e+02
6.136136139999999432e+04 -2.942037770111999251e+01
6.146146149999999761e+04 -6.939133539405568740e+01
6.156156159999999363e+04 2.982171402709515817e+01
6.166166169999999693e+04 -6.097186822942000539e+00
6.176176179999999295e+04 3.413475380981547680e+00
6.186186189999999624e+04 -3.397321465019845732e+01
6.196196199999999953e+04 -1.561296112903115585e+01
6.206206209999999555e+04 2.673141125033619048e+01
6.216216219999999885e+04 8.257147731664603896e+01
6.226226229999999487e+04 -8.414590119834043946e+01
6.236236239999999816e+04 -4.759567282763089935e+01
6.246246249999999418e+04 -2.904317223565080397e+01
6.256256259999999747e+04 6.507698536216777541e+01
6.266266269999999349e+04 -2.375194974713322438e+01
6.276276279999999679e+04 1.290664383396099879e+02
6.286286289999999281e+04 5.471175701631704413e+01
6.296296299999999610e+04 -1.145311266486266355e+01
6.306306309999999939e+04 1.775653426545636648e+01
6.316316319999999541e+04 -1.741555283221490313e+01
6.326326329999999871e+04 -2.467452738873003071e+01
6.336336339999999473e+04 7.943586603887521846e+01
6.346346349999999802e+04 8.522304767819798599e+01
6.356356359999999404e+04 -4.438216092455720485e+01
6.366366369999999733e+04 5.778818026127044760e+01
6.376376379999999335e+04 -8.166651632659228710e+01
6.386386389999999665e+04 1.610670317207129472e+02
6.396396399999999267e+04 1.340137162855558017e+02
6.406406409999999596e+04 -4.266198962022370011e+01
6.416416419999999925e+04 -1.589196400716499511e+02
6.426426429999999527e+04 6.964462667330454337e+01
6.436436439999999857e+04 -4.390763796433984112e+01
6.446446449999999459e+04 1.276791421225667023e+02
6.456456459999999788e+04 -6.125471528508344932e+01
6.466466469999999390e+04 -3.077871136791766560e+01
6.476476479999999719e+04 -3.063133064832558148e+02
6.486486489999999321e+04 -3.351687715184479543e+01
6.496496499999999651e+04 -1.206335684430862756e+02
6.506506509999999253e+04 -1.546607170844576160e+02
6.516516519999999582e+04 -1.859937505181540018e+02
6.526526529999999912e+04 -5.463148062219179479e+01
6.536536539999999513e+04 1.134076392475506196e+02
6.546546549999999843e+04 5.395410309437475149e+01
6.556556560000000172e+04 -1.402124470831827274e+01
6.566566569999999774e+04 -1.531469666532762517e+02
6.576576580000000831e+04 9.041951051593505895e+01
6.586586590000000433e+04 9.027198966902564337e+01
6.596596600000000035e+04 -5.300003177885233896e+01
6.606606609999999637e+04 -6.926494289492332257e+00
6.616616620000000694e+04 1.157062292816343216e+02
6.626626630000000296e+04 -8.281005438522051065e+00
6.636636639999999898e+04 6.399861968796459877e+01
6.646646650000000955e+04 -2.526403542788197143e+01
6.656656660000000556e+04 -7.058498611568072079e+01
6.666666670000000158e+04 1.517837333157745832e+02
6.676676679999999760e+04 -2.215405833124697210e+02
6.686686690000000817e+04 5.478478961576855966e+01
6.696696700000000419e+04 -8.833224791778117435e+01
6.706706710000000021e+04 1.413607729507737929e+02
6.716716719999999623e+04 1.201688445186301948e+02
6.726726730000000680e+04 -1.537075286557604237e+01
6.736736740000000282e+04 4.703008758231929676e+01
6.746746749999999884e+04 2.407559476340754046e+01
6.756756760000000941e+04 2.932622465718641180e+01
6.766766770000000542e+04 3.796135303129105409e+01
6.776776780000000144e+04 -1.313680975173827505e+02
6.786786789999999746e+04 -8.429466687960483284e+01
6.796796800000000803e+04 1.632263307642876669e+02
6.806806810000000405e+04 8.025678652278394054e+00
6.816816820000000007e+04 -1.352684201625654623e+02
6.826826829999999609e+04 -1.630449428622656285e+02
6.836836840000000666e+04 8.012528285037213038e+01
6.846846850000000268e+04 4.231304713457148381e+01
6.856856859999999870e+04 -8.568927975425422972e+01
6.866866870000000927e+04 2.194418291330330817e+01
6.876876880000000529e+04 -4.155680028028834627e+00
6.886886890000000130e+04 2.476050491027705913e+00
6.896896899999999732e+04 -9.048710513229121943e+01
6.906906910000000789e+04 2.332095838465768978e+01
6.916916920000000391e+04 2.994747812653309893e+01
6.926926929999999993e+04 -4.242146498200198579e+01
6.936936939999999595e+04 5.056133192975309498e+01
6.946946950000000652e+04 -2.786590943059252368e+01
6.956956960000000254e+04 1.343909870029545459e+02
6.966966969999999856e+04 -1.743369745155416410e+02
6.976976980000000913e+04 -4.847031006564041888e+01
6.986986990000000515e+04 -1.971446903873013312e+01
6.996997000000000116e+04 -5.565465300438716412e+01
7.007007009999999718e+04 -3.798259355603178733e+01
7.017017020000000775e+04 5.628547844948368351e+01
7.027027030000000377e+04 9.736088009896356255e+01
7.037037039999999979e+04 -7.620139755039822660e+00
7.047047049999999581e+04 -1.222269070820461820e+02
7.057057060000000638e+04 1.387877640857822747e+01
7.067067070000000240e+04 -6.713398493131023770e+01
7.077077079999999842e+04 -1.397811453968055062e+01
7.087087090000000899e+04 9.816901370125900428e+01
7.097097100000000501e+04 1.333168929220097709e+02
7.107107110000000102e+04 -6.006376185415712854e+01
7.117117119999999704e+04 7.182556607166623053e+01
7.127127130000000761e+04 4.276061656118033483e+01
7.137137140000000363e+04 -6.524478638179364509e+01
7.147147149999999965e+04 1.133577974619686728e+02
7.157157160000001022e+04 -3.989601911637804221e+01
7.167167170000000624e+04 1.044861974152411648e+02
7.177177180000000226e+04 1.071910556710462998e+02
7.187187189999999828e+04 6.376694802947135088e+01
7.197197200000000885e+04 -5.930815970693370787e+01
7.207207210000000487e+04 1.151207508693322694e+02
7.217217220000000088e+04 -5.236881390854522422e+00
7.227227229999999690e+04 9.751470608554423336e+01
7.237237240000000747e+04 2.541284074755353117e+00
7.247247250000000349e+04 1.571300236475152872e+02
7.257257259999999951e+04 -7.658220736912927862e+01
7.267267270000001008e+04 5.283512113110533193e+01
7.277277280000000610e+04 -1.512714434215253334e+02
7.287287290000000212e+04 -9.740300824582634220e+01
7.297297299999999814e+04 5.124208166329449199e+01
7.307307310000000871e+04 1.211269466183233732e+02
7.317317320000000473e+04 6.981114876190528840e+00
7.327327330000000075e+04 1.318707743430484243e+02
7.337337339999999676e+04 -1.268957537688492039e+02
7.347347350000000733e+04 -6.934430056108837448e+01
7.357357360000000335e+04 1.510186357736453466e+01
7.367367369999999937e+04 6.470188878232481500e+01
7.377377380000000994e+04 6.484147827969380939e-01
7.387387390000000596e+04 -8.159581192882868095e+01
7.397397400000000198e+04 -4.942024517827909591e+01
7.407407409999999800e+04 1.364965503906732636e+02
7.417417420000000857e+04 5.309899561936950363e+01
7.427427430000000459e+04 1.256541711441267637e+02
7.437437440000000061e+04 -9.413936644502818751e+01
7.447447449999999662e+04 -2.984363542446151030e+01
7.457457460000000719e+04 4.739185772520696105e+01
7.467467470000000321e+04 5.933782939640737197e+01
7.477477479999999923e+04 -2.625069503797514869e+01
7.487487490000000980e+04 -1.500410977697241606e+02
7.497497500000000582e+04 -7.772740730420761679e+01
7.507507510000000184e+04 8.682831546307826898e+01
7.517517519999999786e+04 -6.051342655021299066e+01
7.527527530000000843e+04 -3.105535716117668321e-01
7.537537540000000445e+04 -9.141601789271698308e+00
7.547547550000000047e+04 -3.743931942803154556e+01
7.557557559999999648e+04 -1.761726117204777609e+02
7.567567570000000705e+04 -1.294957733608774220e+02
7.577577580000000307e+04 -1.549376809647959874e+02
7.587587589999999909e+04 1.314510920323784546e+02
7.597597600000000966e+04 -6.602509963521264957e+00
7.607607610000000568e+04 6.733746233930511949e+01
7.617617620000000170e+04 -2.027736883177119509e+01
7.627627629999999772e+04 1.603475340121690920e+02
7.637637640000000829e+04 -1.515420711187317249e+00
7.647647650000000431e+04 -2.418274057088814288e+01
7.657657660000000033e+04 -2.705231622101674702e+02
7.667667669999999634e+04 2.372609105749425495e+01
7.677677680000000692e+04 1.098582332552068976e+02
7.687687690000000293e+04 9.419127548521290194e+00
7.697697699999999895e+04 5.998816959103915991e+00
7.707707710000000952e+04 -3.304645618464710566e+01
7.717717720000000554e+04 3.332686263336600518e+01
7.727727730000000156e+04 4.397291717242379860e+01
7.737737739999999758e+04 -5.491197528147274909e+01
7.747747750000000815e+04 1.208031770305031394e+01
7.757757760000000417e+04 1.413849189944452860e+02
7.767767770000000019e+04 3.718301911317157504e+01
7.777777779999999620e+04 3.756520486414728310e+01
7.787787790000000678e+04 -3.273710261485479833e+01
7.797797800000000279e+04 7.032303713277212154e+00
7.807807809999999881e+04 -1.892568015223669420e+01
7.817817820000000938e+04 3.012451232225112463e+01
7.827827830000000540e+04 -2.960486012317569049e+01
7.837837840000000142e+04 6.899612741098374613e+01
7.847847849999999744e+04 -3.469399798430728055e+01
7.857857860000000801e+04 -1.349923839062987270e+02
7.867867870000000403e+04 2.015634355881103943e+02
7.877877880000000005e+04 1.416441615591079639e+01
7.887887889999999607e+04 5.440199912983597841e+01
7.897897900000000664e+04 2.195830481917156618e+01
7.907907910000000265e+04 -2.406444978625597741e+01
7.917917919999999867e+04 2.907550065916876747e+01
7.927927930000000924e+04 1.175613746700223032e+02
7.937937940000000526e+04 7.434042394249573249e+01
7.947947950000000128e+04 2.862807742332253014e+01
7.957957959999999730e+04 8.741144348546961851e+01
7.967967970000000787e+04 -8.154102473306936716e+00
7.977977980000000389e+04 -4.187183863340825241e+01
7.987987989999999991e+04 1.341847848937664178e+00
7.997997999999999593e+04 7.067720424017704062e+00
8.008008010000000650e+04 -1.291440394489316823e+01
8.018018020000000251e+04 -8.247147049503828953e+01
8.028028029999999853e+04 6.060873480968821525e+01
8.038038040000000910e+04 1.516878057532798607e+02
8.048048050000000512e+04 -4.149059201023352017e+01
8.058058060000000114e+04 8.356818848416175172e+01
8.068068069999999716e+04 -2.799143777124573162e+01
8.078078080000000773e+04 1.220524358778771017e+02
8.088088090000000375e+04 1.285112217972944393e+02
8.098098099999999977e+04 -3.456972709254390264e+00
8.108108109999999579e+04 2.874332903844579690e+01
8.118118120000000636e+04 -1.864723192639550859e+02
8.128128130000000237e+04 1.143406774204598122e+02
8.138138139999999839e+04 -8.486613766690084049e+01
8.148148150000000896e+04 1.483608655630647633e+01
8.158158160000000498e+04 -3.205248757120078551e+01
8.168168170000000100e+04 -1.429699012160894540e+02
8.178178179999999702e+04 -2.802983202346654323e+01
8.188188190000000759e+04 -5.297059854462403905e+01
8.198198200000000361e+04 3.802686093412308566e+01
8.208208209999999963e+04 1.217970191353896467e+02
8.218218219999999565e+04 9.995215701691513743e+01
8.228228230000000622e+04 -4.524342821947438864e+01
8.238238240000000224e+04 3.116784446622177907e+00
8.248248249999999825e+04 1.718843281348785297e+02
8.258258260000000882e+04 1.737262997629339623e+02
8.268268270000000484e+04 7.438150591606131457e+01
8.278278280000000086e+04 -1.086188597164636072e+01
8.288288289999999688e+04 1.774609479403247008e+02
8.298298300000000745e+04 -3.887869373872801759e+01
8.308308310000000347e+04 3.787189311039124817e+01
8.318318319999999949e+04 7.534430218657361955e+00
8.328328330000001006e+04 1.009611636292505352e+02
8.338338340000000608e+04 -4.337024412437701315e+00
8.348348350000000210e+04 8.887471591629378054e+01
8.358358359999999811e+04 -3.604827514476307329e+02
8.368368370000000868e+04 -9.444969191059909974e+01
8.378378380000000470e+04 1.143228027498805659e+02
8.388388390000000072e+04 1.935028067583394034e+02
8.398398399999999674e+04 8.982654371598593457e+01
8.408408410000000731e+04 -7.671235912256415190e+01
8.418418420000000333e+04 -1.147154822019553535e+02
8.428428429999999935e+04 -1.313301593130257743e+02
8.438438440000000992e+04 -1.981715741505759070e+02
8.448448450000000594e+04 -6.818791107929713746e+01
8.458458460000000196e+04 3.920883540722009286e+01
8.468468469999999797e+04 1.313750012630971753e+02
8.478478480000000854e+04 -3.473273872916604432e+01
8.488488490000000456e+04 -1.524711993013617075e+02
8.498498500000000058e+04 7.165629390211688587e+01
8.508508509999999660e+04 -1.448359892827163797e+01
8.518518520000000717e+04 -1.281970006877997719e+02
8.528528530000000319e+04 5.620090291956962858e+00
8.538538539999999921e+04 -1.248312806172015899e+00
8.548548550000000978e+04 3.325200128015673329e+01
8.558558560000000580e+04 -5.390817160970119204e+01
8.568568570000000182e+04 -1.650782318056071318e+01
8.578578579999999783e+04 -2.810878763187838913e+01
8.588588590000000841e+04 -1.034436758964014587e+02
8.598598600000000442e+04 1.854168835355243345e+02
8.608608610000000044e+04 9.558078369733449264e+00
8.618618619999999646e+04 1.362584637127738461e+02
8.628628630000000703e+04 -1.919866082091046477e+00
8.638638640000000305e+04 -1.186162808328137430e+02
8.648648649999999907e+04 6.056638055075349136e+00
8.658658660000000964e+04 9.351868863446347291e+01
8.668668670000000566e+04 1.100052702276534546e+02
8.678678680000000168e+04 5.863448991759248941e+00
8.688688689999999769e+04 -1.374693113618767768e+02
8.698698700000000827e+04 6.914122963757679763e+00
8.708708710000000428e+04 7.416930970294670544e+01
8.718718720000000030e+04 -2.183118317245173756e+01
8.728728729999999632e+04 -2.147473379909177993e+01
8.738738740000000689e+04 -5.700324537751697562e+01
8.748748750000000291e+04 6.947010304485090160e+01
8.758758759999999893e+04 -3.367941111063762261e+00
8.768768770000000950e+04 9.042500405251911388e+01
8.778778780000000552e+04 6.804828943629399873e+01
8.788788790000000154e+04 -1.117743112611010048e+02
8.798798799999999756e+04 1.850381421353662574e+02
8.808808810000000813e+04 4.856869436378332949e+01
8.818818820000000414e+04 7.078928045264476054e+01
8.828828830000000016e+04 -9.280451589092555409e+00
8.838838839999999618e+04 8.152605498921377603e+01
8.848848850000000675e+04 2.259407403193129227e+01
8.858858860000000277e+04 1.865439539663045423e+02
8.868868869999999879e+04 1.465767864855416747e+02
8.878878880000000936e+04 1.553586944478046235e+02
8.888888890000000538e+04 2.410921902216604451e+01
8.898898900000000140e+04 1.710579885582664019e+02
8.908908909999999742e+04 5.087314414100843862e+01
8.918918920000000799e+04 -3.912670927928642328e+01
8.928928930000000400e+04 -1.042310747007653191e+02
8.938938940000000002e+04 1.440449154042450175e+01
8.948948949999999604e+04 2.481073548743838586e+01
8.958958960000000661e+04 -1.593269341160815316e+02
8.968968970000000263e+04 -6.014161949930978324e+01
8.978978979999999865e+04 -1.550307576714202185e+01
8.988988990000000922e+04 1.145020203982791003e+02
8.998999000000000524e+04 -1.820897291276424426e+02
9.009009010000000126e+04 8.075104322599511164e+00
9.019019019999999728e+04 8.618867546139125579e+01
9.029029030000000785e+04 -1.037879378165800830e+02
9.039039040000000386e+04 2.159396723896241213e+02
9.049049049999999988e+04 2.125109618943374130e+02
9.059059059999999590e+04 1.436240720403831119e+02
9.069069070000000647e+04 -1.780574391475337492e+01
9.079079080000000249e+04 1.182205372553026876e+02
9.089089089999999851e+04 -7.990629477608072184e-01
9.099099100000000908e+04 5.853957837359662797e+00
9.109109110000000510e+04 -8.886076836827776049e+01
9.119119120000000112e+04 -1.282410583645617237e+02
9.129129129999999714e+04 -1.481557568111671799e+02
9.139139140000000771e+04 1.524624196056620029e+01
9.149149150000000373e+04 -5.842251517951537920e+01
9.159159159999999974e+04 1.035249089497156945e+02
9.169169169999999576e+04 8.779752052654595218e+01
9.179179180000000633e+04 -9.771740697105234119e+01
9.189189190000000235e+04 7.563004383789564145e+01
9.199199199999999837e+04 -1.905870470836967741e+02
9.209209210000000894e+04 -3.104505726291626644e+01
9.219219220000000496e+04 8.455078977618629210e+01
9.229229230000000098e+04 -5.571729616974335642e+01
9.239239239999999700e+04 1.528894860682892727e+02
9.249249250000000757e+04 7.086224206113365653e+01
9.259259260000000359e+04 5.496457688820581922e+01
9.269269269999999960e+04 2.285657002267722149e+01
9.279279279999999562e+04 8.275389299203094140e+01
9.289289290000000619e+04 2.402249829732382835e+01
9.299299300000000221e+04 2.103483869436030034e+02
9.309309309999999823e+04 -2.780761202532426424e+01
9.319319320000000880e+04 -1.817403777116867047e+02
9.329329330000000482e+04 -2.909889627355111230e+01
9.339339340000000084e+04 1.361324300276220924e+02
9.349349349999999686e+04 -7.148773480973287064e+01
9.359359360000000743e+04 6.726657851687288314e+01
9.369369370000000345e+04 1.534177521514210341e+01
9.379379379999999946e+04 6.613730301684405788e+01
9.389389389999999548e+04 1.230743879715415829e+02
9.399399400000000605e+04 -9.716514369012163854e+01
9.409409410000000207e+04 2.039615173896369527e+01
9.419419419999999809e+04 -2.379296894740407353e+01
9.429429430000000866e+04 4.956600753038317464e+01
9.439439440000000468e+04 8.033552368820558343e+01
9.449449450000000070e+04 7.494185627023617258e+01
9.459459459999999672e+04 3.870253421175883801e+01
9.469469470000000729e+04 4.445532974224713740e+01
9.479479480000000331e+04 1.465662320315010447e+02
9.489489489999999932e+04 -2.266993279896499303e+01
9.499499499999999534e+04 8.016812645508650803e+01
9.509509510000000591e+04 1.063746595293156219e+02
9.519519520000000193e+04 -5.785842421957132586e+01
9.529529529999999795e+04 -4.685734350829959993e+01
9.539539540000000852e+04 3.878605162710196907e+01
9.549549550000000454e+04 -1.093793945697107688e+02
9.559559560000000056e+04 -5.971083419320343211e+01
9.569569569999999658e+04 -7.191837921333804218e+01
9.579579580000000715e+04 1.344812363243806317e+02
9.589589590000000317e+04 1.359582179521440253e+02
9.599599599999999919e+04 2.798329570923564447e+01
9.609609609999999520e+04 2.146465477167500353e+02
9.619619620000000577e+04 2.857974684350568850e+02
9.629629630000000179e+04 -1.424252054073993747e+02
9.639639639999999781e+04 4.693969166658270353e+01
9.649649650000000838e+04 5.042623113273243263e+01
9.659659660000000440e+04 7.006757753505769415e+01
9.669669670000000042e+04 2.691382288354639130e+01
9.679679679999999644e+04 4.256093939014883887e+01
9.689689690000000701e+04 -2.230859152942683465e+02
9.699699700000000303e+04 6.446567867962088805e+00
9.709709709999999905e+04 -1.961437611990273808e+02
9.719719720000000962e+04 -7.125165986689691522e+01
9.729729730000000563e+04 -1.596474892766884501e+01
9.739739740000000165e+04 -3.624931402517492529e+01
9.749749749999999767e+04 -1.610438992578248190e+02
9.759759760000000824e+04 7.686984098298223955e+01
9.769769770000000426e+04 7.032573674475763426e+01
9.779779780000000028e+04 1.879981240199308345e+01
9.789789789999999630e+04 -9.594247943113575872e+00
9.799799800000000687e+04 7.876892071964959996e+01
9.809809810000000289e+04 -1.319015264888617480e+02
9.819819819999999891e+04 -1.189628733900336641e+02
9.829829830000000948e+04 5.182306606135227156e+01
9.839839840000000549e+04 4.194763392944057756e+00
9.849849850000000151e+04 -5.291441127441060210e+00
9.859859859999999753e+04 -2.144728408116539242e+01
9.869869870000000810e+04 4.713492825540172504e+01
9.879879880000000412e+04 -1.289334250814599159e+02
9.889889890000000014e+04 2.226877989700647618e+02
9.899899899999999616e+04 1.040979599104342697e+02
9.909909910000000673e+04 4.343240391217965879e+01
9.919919920000000275e+04 5.196311801350901050e+01
9.929929929999999877e+04 5.858303834094263607e+01
9.939939940000000934e+04 -1.112158877151646408e+02
9.949949950000000536e+04 6.788204278986505358e+01
9.959959960000000137e+04 6.336350196857617334e+01
9.969969969999999739e+04 5.044815912937162494e+01
9.979979980000000796e+04 -4.955696639387468849e+01
9.989989990000000398e+04 -1.036632820338847694e+02
1.000000000000000000e+05 1.231424350305184987e+02
